…
graph_hexagonal_lattice(c(2L, 3L))
#> $V  tibble [22 × 0] (S3: tbl_df/tbl/data.frame)
#>  Named list()
#> # A tibble: 27 × 2
#>     from    to
#>    <int> <int>
#>  1     2     1
#>  2     9     1
#>  3     3     2
#>  4     4     3
#>  5    11     3
#>  6     5     4
#>  7     6     5
#>  8    13     5
#>  9     7     6
#> 10    15     7
#> # ℹ 17 more rows
…
